Analysis & Synthesis report for tbd_visualizer
Sun Oct 16 16:58:27 2022
Quartus Prime Version 18.1.0 Build 625 09/12/2018 SJ Lite Edition


---------------------
; Table of Contents ;
---------------------
  1. Legal Notice
  2. Analysis & Synthesis Summary
  3. Analysis & Synthesis Settings
  4. Parallel Compilation
  5. Analysis & Synthesis Source Files Read
  6. Analysis & Synthesis Resource Usage Summary
  7. Analysis & Synthesis Resource Utilization by Entity
  8. State Machine - |tbd_visualizer|visualizer:DUT|R.LEDStates
  9. Registers Removed During Synthesis
 10. Removed Registers Triggering Further Register Optimizations
 11. General Register Statistics
 12. Multiplexer Restructuring Statistics (Restructuring Performed)
 13. Post-Synthesis Netlist Statistics for Top Partition
 14. Elapsed Time Per Partition
 15. Analysis & Synthesis Messages



----------------
; Legal Notice ;
----------------
Copyright (C) 2018  Intel Corporation. All rights reserved.
Your use of Intel Corporation's design tools, logic functions 
and other software and tools, and its AMPP partner logic 
functions, and any output files from any of the foregoing 
(including device programming or simulation files), and any 
associated documentation or information are expressly subject 
to the terms and conditions of the Intel Program License 
Subscription Agreement, the Intel Quartus Prime License Agreement,
the Intel FPGA IP License Agreement, or other applicable license
agreement, including, without limitation, that your use is for
the sole purpose of programming logic devices manufactured by
Intel and sold by Intel or its authorized distributors.  Please
refer to the applicable agreement for further details.



+-------------------------------------------------------------------------------+
; Analysis & Synthesis Summary                                                  ;
+---------------------------------+---------------------------------------------+
; Analysis & Synthesis Status     ; Successful - Sun Oct 16 16:58:27 2022       ;
; Quartus Prime Version           ; 18.1.0 Build 625 09/12/2018 SJ Lite Edition ;
; Revision Name                   ; tbd_visualizer                              ;
; Top-level Entity Name           ; tbd_visualizer                              ;
; Family                          ; Cyclone V                                   ;
; Logic utilization (in ALMs)     ; N/A                                         ;
; Total registers                 ; 94                                          ;
; Total pins                      ; 58                                          ;
; Total virtual pins              ; 0                                           ;
; Total block memory bits         ; 0                                           ;
; Total DSP Blocks                ; 0                                           ;
; Total HSSI RX PCSs              ; 0                                           ;
; Total HSSI PMA RX Deserializers ; 0                                           ;
; Total HSSI TX PCSs              ; 0                                           ;
; Total HSSI PMA TX Serializers   ; 0                                           ;
; Total PLLs                      ; 0                                           ;
; Total DLLs                      ; 0                                           ;
+---------------------------------+---------------------------------------------+


+---------------------------------------------------------------------------------------------------------------------------+
; Analysis & Synthesis Settings                                                                                             ;
+---------------------------------------------------------------------------------+--------------------+--------------------+
; Option                                                                          ; Setting            ; Default Value      ;
+---------------------------------------------------------------------------------+--------------------+--------------------+
; Device                                                                          ; 5CSEMA5F31C6       ;                    ;
; Top-level entity name                                                           ; tbd_visualizer     ; tbd_visualizer     ;
; Family name                                                                     ; Cyclone V          ; Cyclone V          ;
; Maximum processors allowed for parallel compilation                             ; All                ;                    ;
; Use smart compilation                                                           ; Off                ; Off                ;
; Enable parallel Assembler and Timing Analyzer during compilation                ; On                 ; On                 ;
; Enable compact report table                                                     ; Off                ; Off                ;
; Restructure Multiplexers                                                        ; Auto               ; Auto               ;
; MLAB Add Timing Constraints For Mixed-Port Feed-Through Mode Setting Don't Care ; Off                ; Off                ;
; Create Debugging Nodes for IP Cores                                             ; Off                ; Off                ;
; Preserve fewer node names                                                       ; On                 ; On                 ;
; Intel FPGA IP Evaluation Mode                                                   ; Enable             ; Enable             ;
; Verilog Version                                                                 ; Verilog_2001       ; Verilog_2001       ;
; VHDL Version                                                                    ; VHDL_1993          ; VHDL_1993          ;
; State Machine Processing                                                        ; Auto               ; Auto               ;
; Safe State Machine                                                              ; Off                ; Off                ;
; Extract Verilog State Machines                                                  ; On                 ; On                 ;
; Extract VHDL State Machines                                                     ; On                 ; On                 ;
; Ignore Verilog initial constructs                                               ; Off                ; Off                ;
; Iteration limit for constant Verilog loops                                      ; 5000               ; 5000               ;
; Iteration limit for non-constant Verilog loops                                  ; 250                ; 250                ;
; Add Pass-Through Logic to Inferred RAMs                                         ; On                 ; On                 ;
; Infer RAMs from Raw Logic                                                       ; On                 ; On                 ;
; Parallel Synthesis                                                              ; On                 ; On                 ;
; DSP Block Balancing                                                             ; Auto               ; Auto               ;
; NOT Gate Push-Back                                                              ; On                 ; On                 ;
; Power-Up Don't Care                                                             ; On                 ; On                 ;
; Remove Redundant Logic Cells                                                    ; Off                ; Off                ;
; Remove Duplicate Registers                                                      ; On                 ; On                 ;
; Ignore CARRY Buffers                                                            ; Off                ; Off                ;
; Ignore CASCADE Buffers                                                          ; Off                ; Off                ;
; Ignore GLOBAL Buffers                                                           ; Off                ; Off                ;
; Ignore ROW GLOBAL Buffers                                                       ; Off                ; Off                ;
; Ignore LCELL Buffers                                                            ; Off                ; Off                ;
; Ignore SOFT Buffers                                                             ; On                 ; On                 ;
; Limit AHDL Integers to 32 Bits                                                  ; Off                ; Off                ;
; Optimization Technique                                                          ; Balanced           ; Balanced           ;
; Carry Chain Length                                                              ; 70                 ; 70                 ;
; Auto Carry Chains                                                               ; On                 ; On                 ;
; Auto Open-Drain Pins                                                            ; On                 ; On                 ;
; Perform WYSIWYG Primitive Resynthesis                                           ; Off                ; Off                ;
; Auto ROM Replacement                                                            ; On                 ; On                 ;
; Auto RAM Replacement                                                            ; On                 ; On                 ;
; Auto DSP Block Replacement                                                      ; On                 ; On                 ;
; Auto Shift Register Replacement                                                 ; Auto               ; Auto               ;
; Allow Shift Register Merging across Hierarchies                                 ; Auto               ; Auto               ;
; Auto Clock Enable Replacement                                                   ; On                 ; On                 ;
; Strict RAM Replacement                                                          ; Off                ; Off                ;
; Allow Synchronous Control Signals                                               ; On                 ; On                 ;
; Force Use of Synchronous Clear Signals                                          ; Off                ; Off                ;
; Auto Resource Sharing                                                           ; Off                ; Off                ;
; Allow Any RAM Size For Recognition                                              ; Off                ; Off                ;
; Allow Any ROM Size For Recognition                                              ; Off                ; Off                ;
; Allow Any Shift Register Size For Recognition                                   ; Off                ; Off                ;
; Use LogicLock Constraints during Resource Balancing                             ; On                 ; On                 ;
; Ignore translate_off and synthesis_off directives                               ; Off                ; Off                ;
; Timing-Driven Synthesis                                                         ; On                 ; On                 ;
; Report Parameter Settings                                                       ; On                 ; On                 ;
; Report Source Assignments                                                       ; On                 ; On                 ;
; Report Connectivity Checks                                                      ; On                 ; On                 ;
; Ignore Maximum Fan-Out Assignments                                              ; Off                ; Off                ;
; Synchronization Register Chain Length                                           ; 3                  ; 3                  ;
; Power Optimization During Synthesis                                             ; Normal compilation ; Normal compilation ;
; HDL message level                                                               ; Level2             ; Level2             ;
; Suppress Register Optimization Related Messages                                 ; Off                ; Off                ;
; Number of Removed Registers Reported in Synthesis Report                        ; 5000               ; 5000               ;
; Number of Swept Nodes Reported in Synthesis Report                              ; 5000               ; 5000               ;
; Number of Inverted Registers Reported in Synthesis Report                       ; 100                ; 100                ;
; Clock MUX Protection                                                            ; On                 ; On                 ;
; Auto Gated Clock Conversion                                                     ; Off                ; Off                ;
; Block Design Naming                                                             ; Auto               ; Auto               ;
; SDC constraint protection                                                       ; Off                ; Off                ;
; Synthesis Effort                                                                ; Auto               ; Auto               ;
; Shift Register Replacement - Allow Asynchronous Clear Signal                    ; On                 ; On                 ;
; Pre-Mapping Resynthesis Optimization                                            ; Off                ; Off                ;
; Analysis & Synthesis Message Level                                              ; Medium             ; Medium             ;
; Disable Register Merging Across Hierarchies                                     ; Auto               ; Auto               ;
; Resource Aware Inference For Block RAM                                          ; On                 ; On                 ;
; Automatic Parallel Synthesis                                                    ; On                 ; On                 ;
; Partial Reconfiguration Bitstream ID                                            ; Off                ; Off                ;
+---------------------------------------------------------------------------------+--------------------+--------------------+


+------------------------------------------+
; Parallel Compilation                     ;
+----------------------------+-------------+
; Processors                 ; Number      ;
+----------------------------+-------------+
; Number detected on machine ; 8           ;
; Maximum allowed            ; 4           ;
;                            ;             ;
; Average used               ; 1.00        ;
; Maximum used               ; 4           ;
;                            ;             ;
; Usage by Processor         ; % Time Used ;
;     Processor 1            ; 100.0%      ;
;     Processors 2-4         ;   0.0%      ;
+----------------------------+-------------+


+-------------------------------------------------------------------------------------------------------------------------------------------------------------------------------------------------------+
; Analysis & Synthesis Source Files Read                                                                                                                                                                ;
+----------------------------------------------+-----------------+-----------------+----------------------------------------------------------------------------------------------------------+---------+
; File Name with User-Entered Path             ; Used in Netlist ; File Type       ; File Name with Absolute Path                                                                             ; Library ;
+----------------------------------------------+-----------------+-----------------+----------------------------------------------------------------------------------------------------------+---------+
; ../../unit_visualizer/src/visualizer-Rtl.vhd ; yes             ; User VHDL File  ; D:/Studium/Projekt/dpg/vhdl/databuffer/src/grp_databuffer/unit_visualizer/src/visualizer-Rtl.vhd         ;         ;
; ../../unit_visualizer/src/visualizer-e.vhd   ; yes             ; User VHDL File  ; D:/Studium/Projekt/dpg/vhdl/databuffer/src/grp_databuffer/unit_visualizer/src/visualizer-e.vhd           ;         ;
; ../../unit_visualizer/src/pkg_visualizer.vhd ; yes             ; User VHDL File  ; D:/Studium/Projekt/dpg/vhdl/databuffer/src/grp_databuffer/unit_visualizer/src/pkg_visualizer.vhd         ;         ;
; ../src/tbd_visualizer-Rtl.vhd                ; yes             ; User VHDL File  ; D:/Studium/Projekt/dpg/vhdl/databuffer/src/grp_databuffer/unit_tbd_visualizer/src/tbd_visualizer-Rtl.vhd ;         ;
; ../src/tbd_visualizer-e.vhd                  ; yes             ; User VHDL File  ; D:/Studium/Projekt/dpg/vhdl/databuffer/src/grp_databuffer/unit_tbd_visualizer/src/tbd_visualizer-e.vhd   ;         ;
+----------------------------------------------+-----------------+-----------------+----------------------------------------------------------------------------------------------------------+---------+


+----------------------------------------------------------+
; Analysis & Synthesis Resource Usage Summary              ;
+---------------------------------------------+------------+
; Resource                                    ; Usage      ;
+---------------------------------------------+------------+
; Estimate of Logic utilization (ALMs needed) ; 50         ;
;                                             ;            ;
; Combinational ALUT usage for logic          ; 70         ;
;     -- 7 input functions                    ; 0          ;
;     -- 6 input functions                    ; 6          ;
;     -- 5 input functions                    ; 4          ;
;     -- 4 input functions                    ; 22         ;
;     -- <=3 input functions                  ; 38         ;
;                                             ;            ;
; Dedicated logic registers                   ; 94         ;
;                                             ;            ;
; I/O pins                                    ; 58         ;
;                                             ;            ;
; Total DSP Blocks                            ; 0          ;
;                                             ;            ;
; Maximum fan-out node                        ; iClk~input ;
; Maximum fan-out                             ; 94         ;
; Total fan-out                               ; 670        ;
; Average fan-out                             ; 2.39       ;
+---------------------------------------------+------------+


+------------------------------------------------------------------------------------------------------------------------------------------------------------------------------------------------------+
; Analysis & Synthesis Resource Utilization by Entity                                                                                                                                                  ;
+----------------------------+---------------------+---------------------------+-------------------+------------+------+--------------+--------------------------------+----------------+--------------+
; Compilation Hierarchy Node ; Combinational ALUTs ; Dedicated Logic Registers ; Block Memory Bits ; DSP Blocks ; Pins ; Virtual Pins ; Full Hierarchy Name            ; Entity Name    ; Library Name ;
+----------------------------+---------------------+---------------------------+-------------------+------------+------+--------------+--------------------------------+----------------+--------------+
; |tbd_visualizer            ; 70 (0)              ; 94 (0)                    ; 0                 ; 0          ; 58   ; 0            ; |tbd_visualizer                ; tbd_visualizer ; work         ;
;    |visualizer:DUT|        ; 70 (70)             ; 94 (94)                   ; 0                 ; 0          ; 0    ; 0            ; |tbd_visualizer|visualizer:DUT ; visualizer     ; work         ;
+----------------------------+---------------------+---------------------------+-------------------+------------+------+--------------+--------------------------------+----------------+--------------+
Note: For table entries with two numbers listed, the numbers in parentheses indicate the number of resources of the given type used by the specific entity alone. The numbers listed outside of parentheses indicate the total resources of the given type used by the specific entity and all of its sub-entities in the hierarchy.


Encoding Type:  One-Hot
+----------------------------------------------------------------------------------------------------------------------------------------------+
; State Machine - |tbd_visualizer|visualizer:DUT|R.LEDStates                                                                                   ;
+--------------------------------+--------------------------------+---------------------------+-----------------------+------------------------+
; Name                           ; R.LEDStates.LightChaserRunning ; R.LEDStates.LightChaserOn ; R.LEDStates.AllLedsOn ; R.LEDStates.AllLedsOff ;
+--------------------------------+--------------------------------+---------------------------+-----------------------+------------------------+
; R.LEDStates.AllLedsOff         ; 0                              ; 0                         ; 0                     ; 0                      ;
; R.LEDStates.AllLedsOn          ; 0                              ; 0                         ; 1                     ; 1                      ;
; R.LEDStates.LightChaserOn      ; 0                              ; 1                         ; 0                     ; 1                      ;
; R.LEDStates.LightChaserRunning ; 1                              ; 0                         ; 0                     ; 1                      ;
+--------------------------------+--------------------------------+---------------------------+-----------------------+------------------------+


+---------------------------------------------------------------------------------+
; Registers Removed During Synthesis                                              ;
+----------------------------------------+----------------------------------------+
; Register name                          ; Reason for Removal                     ;
+----------------------------------------+----------------------------------------+
; visualizer:DUT|R.Carries[1..5]         ; Stuck at GND due to stuck port data_in ;
; visualizer:DUT|R.BCDCounter[5][3]      ; Stuck at GND due to stuck port data_in ;
; visualizer:DUT|R.BCDCounter[5][2]      ; Stuck at GND due to stuck port data_in ;
; visualizer:DUT|R.BCDCounter[5][1]      ; Stuck at GND due to stuck port data_in ;
; visualizer:DUT|R.BCDCounter[5][0]      ; Stuck at GND due to stuck port data_in ;
; visualizer:DUT|R.BCDCounter[4][3]      ; Stuck at GND due to stuck port data_in ;
; visualizer:DUT|R.BCDCounter[4][2]      ; Stuck at GND due to stuck port data_in ;
; visualizer:DUT|R.BCDCounter[4][1]      ; Stuck at GND due to stuck port data_in ;
; visualizer:DUT|R.BCDCounter[4][0]      ; Stuck at GND due to stuck port data_in ;
; visualizer:DUT|R.BCDCounter[3][3]      ; Stuck at GND due to stuck port data_in ;
; visualizer:DUT|R.BCDCounter[3][2]      ; Stuck at GND due to stuck port data_in ;
; visualizer:DUT|R.BCDCounter[3][1]      ; Stuck at GND due to stuck port data_in ;
; visualizer:DUT|R.BCDCounter[3][0]      ; Stuck at GND due to stuck port data_in ;
; visualizer:DUT|R.BCDCounter[2][3]      ; Stuck at GND due to stuck port data_in ;
; visualizer:DUT|R.BCDCounter[2][2]      ; Stuck at GND due to stuck port data_in ;
; visualizer:DUT|R.BCDCounter[2][1]      ; Stuck at GND due to stuck port data_in ;
; visualizer:DUT|R.BCDCounter[2][0]      ; Stuck at GND due to stuck port data_in ;
; visualizer:DUT|R.Hex[5][6]             ; Stuck at GND due to stuck port data_in ;
; visualizer:DUT|R.Hex[4][6]             ; Stuck at GND due to stuck port data_in ;
; visualizer:DUT|R.Hex[3][6]             ; Stuck at GND due to stuck port data_in ;
; visualizer:DUT|R.Hex[2][6]             ; Stuck at GND due to stuck port data_in ;
; visualizer:DUT|R.LEDStates.AllLedsOff  ; Lost fanout                            ;
; Total Number of Removed Registers = 26 ;                                        ;
+----------------------------------------+----------------------------------------+


+-------------------------------------------------------------------------------------------------------------------------+
; Removed Registers Triggering Further Register Optimizations                                                             ;
+-----------------------------+---------------------------+---------------------------------------------------------------+
; Register name               ; Reason for Removal        ; Registers Removed due to This Register                        ;
+-----------------------------+---------------------------+---------------------------------------------------------------+
; visualizer:DUT|R.Carries[5] ; Stuck at GND              ; visualizer:DUT|R.BCDCounter[5][3], visualizer:DUT|R.Hex[5][6] ;
;                             ; due to stuck port data_in ;                                                               ;
; visualizer:DUT|R.Carries[3] ; Stuck at GND              ; visualizer:DUT|R.BCDCounter[4][3], visualizer:DUT|R.Hex[4][6] ;
;                             ; due to stuck port data_in ;                                                               ;
; visualizer:DUT|R.Carries[2] ; Stuck at GND              ; visualizer:DUT|R.BCDCounter[3][3], visualizer:DUT|R.Hex[3][6] ;
;                             ; due to stuck port data_in ;                                                               ;
; visualizer:DUT|R.Carries[1] ; Stuck at GND              ; visualizer:DUT|R.BCDCounter[2][3], visualizer:DUT|R.Hex[2][6] ;
;                             ; due to stuck port data_in ;                                                               ;
+-----------------------------+---------------------------+---------------------------------------------------------------+


+------------------------------------------------------+
; General Register Statistics                          ;
+----------------------------------------------+-------+
; Statistic                                    ; Value ;
+----------------------------------------------+-------+
; Total registers                              ; 94    ;
; Number of registers using Synchronous Clear  ; 25    ;
; Number of registers using Synchronous Load   ; 0     ;
; Number of registers using Asynchronous Clear ; 94    ;
; Number of registers using Asynchronous Load  ; 0     ;
; Number of registers using Clock Enable       ; 53    ;
; Number of registers using Preset             ; 0     ;
+----------------------------------------------+-------+


+------------------------------------------------------------------------------------------------------------------------------------------------------------------------+
; Multiplexer Restructuring Statistics (Restructuring Performed)                                                                                                         ;
+--------------------+-----------+---------------+----------------------+------------------------+------------+----------------------------------------------------------+
; Multiplexer Inputs ; Bus Width ; Baseline Area ; Area if Restructured ; Saving if Restructured ; Registered ; Example Multiplexer Output                               ;
+--------------------+-----------+---------------+----------------------+------------------------+------------+----------------------------------------------------------+
; 5:1                ; 4 bits    ; 12 LEs        ; 12 LEs               ; 0 LEs                  ; No         ; |tbd_visualizer|visualizer:DUT|NextR.LEDStates.AllLedsOn ;
+--------------------+-----------+---------------+----------------------+------------------------+------------+----------------------------------------------------------+


+-----------------------------------------------------+
; Post-Synthesis Netlist Statistics for Top Partition ;
+-----------------------+-----------------------------+
; Type                  ; Count                       ;
+-----------------------+-----------------------------+
; arriav_ff             ; 94                          ;
;     CLR               ; 16                          ;
;     CLR SCLR          ; 25                          ;
;     ENA CLR           ; 53                          ;
; arriav_lcell_comb     ; 109                         ;
;     arith             ; 25                          ;
;         1 data inputs ; 25                          ;
;     normal            ; 84                          ;
;         0 data inputs ; 1                           ;
;         1 data inputs ; 39                          ;
;         2 data inputs ; 2                           ;
;         3 data inputs ; 10                          ;
;         4 data inputs ; 22                          ;
;         5 data inputs ; 4                           ;
;         6 data inputs ; 6                           ;
; boundary_port         ; 58                          ;
;                       ;                             ;
; Max LUT depth         ; 3.40                        ;
; Average LUT depth     ; 1.61                        ;
+-----------------------+-----------------------------+


+-------------------------------+
; Elapsed Time Per Partition    ;
+----------------+--------------+
; Partition Name ; Elapsed Time ;
+----------------+--------------+
; Top            ; 00:00:00     ;
+----------------+--------------+


+-------------------------------+
; Analysis & Synthesis Messages ;
+-------------------------------+
Info: *******************************************************************
Info: Running Quartus Prime Analysis & Synthesis
    Info: Version 18.1.0 Build 625 09/12/2018 SJ Lite Edition
    Info: Processing started: Sun Oct 16 16:58:14 2022
Info: Command: quartus_map --read_settings_files=on --write_settings_files=off tbd_visualizer -c tbd_visualizer
Info (20030): Parallel compilation is enabled and will use 4 of the 4 processors detected
Info (12021): Found 1 design units, including 0 entities, in source file /studium/projekt/dpg/vhdl/databuffer/src/grp_databuffer/unit_visualizer/src/visualizer-rtl.vhd
    Info (12022): Found design unit 1: visualizer-Rtl File: D:/Studium/Projekt/dpg/vhdl/databuffer/src/grp_databuffer/unit_visualizer/src/visualizer-Rtl.vhd Line: 16
Info (12021): Found 1 design units, including 1 entities, in source file /studium/projekt/dpg/vhdl/databuffer/src/grp_databuffer/unit_visualizer/src/visualizer-e.vhd
    Info (12023): Found entity 1: visualizer File: D:/Studium/Projekt/dpg/vhdl/databuffer/src/grp_databuffer/unit_visualizer/src/visualizer-e.vhd Line: 16
Info (12021): Found 2 design units, including 0 entities, in source file /studium/projekt/dpg/vhdl/databuffer/src/grp_databuffer/unit_visualizer/src/pkg_visualizer.vhd
    Info (12022): Found design unit 1: pkg_visualizer File: D:/Studium/Projekt/dpg/vhdl/databuffer/src/grp_databuffer/unit_visualizer/src/pkg_visualizer.vhd Line: 39
    Info (12022): Found design unit 2: pkg_visualizer-body File: D:/Studium/Projekt/dpg/vhdl/databuffer/src/grp_databuffer/unit_visualizer/src/pkg_visualizer.vhd Line: 71
Info (12021): Found 1 design units, including 0 entities, in source file /studium/projekt/dpg/vhdl/databuffer/src/grp_databuffer/unit_tbd_visualizer/src/tbd_visualizer-rtl.vhd
    Info (12022): Found design unit 1: tbd_visualizer-Rtl File: D:/Studium/Projekt/dpg/vhdl/databuffer/src/grp_databuffer/unit_tbd_visualizer/src/tbd_visualizer-Rtl.vhd Line: 12
Info (12021): Found 1 design units, including 1 entities, in source file /studium/projekt/dpg/vhdl/databuffer/src/grp_databuffer/unit_tbd_visualizer/src/tbd_visualizer-e.vhd
    Info (12023): Found entity 1: tbd_visualizer File: D:/Studium/Projekt/dpg/vhdl/databuffer/src/grp_databuffer/unit_tbd_visualizer/src/tbd_visualizer-e.vhd Line: 16
Info (12127): Elaborating entity "tbd_visualizer" for the top level hierarchy
Info (12128): Elaborating entity "visualizer" for hierarchy "visualizer:DUT" File: D:/Studium/Projekt/dpg/vhdl/databuffer/src/grp_databuffer/unit_tbd_visualizer/src/tbd_visualizer-Rtl.vhd Line: 20
Warning (13024): Output pins are stuck at VCC or GND
    Warning (13410): Pin "HEX2[6]" is stuck at VCC File: D:/Studium/Projekt/dpg/vhdl/databuffer/src/grp_databuffer/unit_tbd_visualizer/src/tbd_visualizer-e.vhd Line: 29
    Warning (13410): Pin "HEX3[6]" is stuck at VCC File: D:/Studium/Projekt/dpg/vhdl/databuffer/src/grp_databuffer/unit_tbd_visualizer/src/tbd_visualizer-e.vhd Line: 30
    Warning (13410): Pin "HEX4[6]" is stuck at VCC File: D:/Studium/Projekt/dpg/vhdl/databuffer/src/grp_databuffer/unit_tbd_visualizer/src/tbd_visualizer-e.vhd Line: 31
    Warning (13410): Pin "HEX5[6]" is stuck at VCC File: D:/Studium/Projekt/dpg/vhdl/databuffer/src/grp_databuffer/unit_tbd_visualizer/src/tbd_visualizer-e.vhd Line: 32
Info (286030): Timing-Driven Synthesis is running
Info (17049): 1 registers lost all their fanouts during netlist optimizations.
Info (16010): Generating hard_block partition "hard_block:auto_generated_inst"
    Info (16011): Adding 0 node(s), including 0 DDIO, 0 PLL, 0 transceiver and 0 LCELL
Info (21057): Implemented 162 device resources after synthesis - the final resource count might be different
    Info (21058): Implemented 6 input pins
    Info (21059): Implemented 52 output pins
    Info (21061): Implemented 104 logic cells
Info: Quartus Prime Analysis & Synthesis was successful. 0 errors, 5 warnings
    Info: Peak virtual memory: 4853 megabytes
    Info: Processing ended: Sun Oct 16 16:58:27 2022
    Info: Elapsed time: 00:00:13
    Info: Total CPU time (on all processors): 00:00:25


