{
	"$schema": "http://json-schema.org/draft-07/schema",
	"title": "Configuration for an SPI Master Interface",
	"version": "1.0.0",
	"type": "object",
	"properties": {
		"interface_type": {
			"$comment": "The type of the interface, must be SPI for an SPI Config",
			"type": "string",
			"pattern": "SPI"
		},
		"bitrate": {
			"$comment": "To query possible values, check the capabilities of the Interface. This value is in kHz",
			"type": "integer",
			"minimum": 1
		},
		"cpha": {
			"$comment": "Which clock phase configuration is used. smpl_rising is equivalent to 0",
			"type": "string",
			"pattern": "(SmplRising)|(SmplFalling)",
			"default": "SmplRising"
		},
		"cpol": {
			"$comment": "Idle polarity of SCLK, low is equivalent to 0",
			"type": "string",
			"pattern": "(Low)|(High)",
			"default": "Low"
		},
		"pre_delay" : {
			"$comment": "Delay from Chiselect getting active to the first SCLK edge in Clockcycles",
			"type": "integer",
			"minimum": 0,
			"maximum": 255,
			"default": 8
		},
		"post_delay" : {
			"$comment": "Delay from the last SCLK edge to Chipselect getting inactive",
			"type": "integer",
			"minimum": 0,
			"maximum": 255,
			"default": 8
		}
	}
}
