{
	"$schema": "http://json-schema.org/draft-07/schema",
	"title": "List of Transfers",
	"type": "object",
	"properties": {
		"transfers": {
			"$comment": "A list of URIs, that point to existing transfers",
			"type": "array",
			"items": {
				"type": "string",
				"format": "uri"
			}
		}
	}
}
